@startuml
cloud rsync.net
rectangle blader {
    rectangle "app-kvm (ZFS)" {
        node helios
        node homepage
        node erpnext
        folder "/store" {
            collections "container\n configs"
        }
        file "rsync-cron.sh"
    }
    rectangle db-kvm {
        database mysql
        database redis
        database otherDB

    }
    rectangle toolbox {
        node prometheus
        node netdata
        node librenms

    }
    rectangle ucs {
        collections "ucs containers"
    }
}
@enduml

